{
  "prepare_queue": {
    "installed": [],
    "uninstalled": []
  },
  "config_munge": {
    "files": {}
  },
  "installed_plugins": {
    "cordova-plugin-advanced-http": {
      "OKHTTP_VERSION": "3.10.0",
      "PACKAGE_NAME": "br.technox.kstrade"
    },
    "cordova-plugin-browsertab": {
      "PACKAGE_NAME": "br.technox.kstrade"
    },
    "cordova-plugin-camera": {
      "PACKAGE_NAME": "br.technox.kstrade"
    },
    "cordova-plugin-datepicker": {
      "PACKAGE_NAME": "br.technox.kstrade"
    },
    "cordova-plugin-device": {
      "PACKAGE_NAME": "br.technox.kstrade"
    },
    "cordova-plugin-geolocation": {
      "PACKAGE_NAME": "br.technox.kstrade"
    },
    "cordova-plugin-ionic-keyboard": {
      "PACKAGE_NAME": "br.technox.kstrade"
    },
    "cordova-plugin-ionic-webview": {
      "PACKAGE_NAME": "br.technox.kstrade"
    },
    "cordova-plugin-ios-camera-permissions": {
      "PACKAGE_NAME": "br.technox.kstrade"
    },
    "cordova-plugin-network-information": {
      "PACKAGE_NAME": "br.technox.kstrade"
    },
    "cordova-plugin-splashscreen": {
      "PACKAGE_NAME": "br.technox.kstrade"
    },
    "cordova-plugin-statusbar": {
      "PACKAGE_NAME": "br.technox.kstrade"
    },
    "cordova-plugin-vibration": {
      "PACKAGE_NAME": "br.technox.kstrade"
    },
    "cordova-plugin-whitelist": {
      "PACKAGE_NAME": "br.technox.kstrade"
    }
  },
  "dependent_plugins": {
    "cordova-plugin-file": {
      "PACKAGE_NAME": "br.technox.kstrade"
    }
  }
}
